<svg width="40" height="40" viewBox="0 0 40 40" fill="none" xmlns="http://www.w3.org/2000/svg">
<g clip-path="url(#clip0)">
<path d="M39.5833 11.25L35.75 9C35.75 8.75 35.6667 8.58333 35.5833 8.33333C36.5 5.08333 34.0833 2 30.8333 2C26.25 2 24.0833 7.66667 27.5 10.75V17H12.5C12.25 13.75 9.58333 11.1667 6.25 11.1667C2.83333 11.1667 0 14 0 17.4167V28.6667C0 31 8.33333 28.75 8.33333 22C8.33333 20.4167 9.41667 19.1667 10.8333 18.75V21.1667C10.8333 27.1667 15.1667 32.25 20.8333 33.4167V36.1667C20.8333 36.6667 21.1667 37 21.6667 37H22.5V41.1667C22.5 42.25 24.1667 42.25 24.1667 41.1667V37H25C25.5 37 25.8333 36.6667 25.8333 36.1667V33.4167C31.5 32.25 35.8333 27.1667 35.8333 21.1667C35.8333 19.6667 35.8333 16.5833 35.8333 15L39.5833 12.75C40.1667 12.4167 40.1667 11.5833 39.5833 11.25ZM34.1667 9.5V17H29.1667V9.5C29.1667 8.08333 30.25 7 31.6667 7C33.0833 7 34.1667 8.08333 34.1667 9.5ZM30.8333 3.66667C32.3333 3.66667 33.5833 4.66667 34 6.08333C31.75 4.5 28.5833 5.58333 27.75 8.16667C26.8333 5.91667 28.5833 3.66667 30.8333 3.66667ZM6.66667 22C6.66667 24.9167 4.5 27.3333 1.66667 27.75V17.4167C1.66667 14.9167 3.75 12.8333 6.25 12.8333C8.66667 12.8333 10.6667 14.6667 10.8333 17.0833C8.5 17.5 6.66667 19.5 6.66667 22ZM24.1667 35.3333H22.5V33.5833C23.3333 33.6667 23.3333 33.6667 24.1667 33.5833V35.3333ZM34.1667 21.1667C34.1667 27.1667 29.3333 32 23.3333 32C17.3333 32 12.5 27.1667 12.5 21.1667V18.6667H27.5V22C27.5 26.5833 21.8333 28.75 18.75 25.3333H21.6667C22.75 25.3333 22.75 23.6667 21.6667 23.6667H17.8333C17.6667 23.1667 17.5 22.5833 17.5 22H21.6667C22.75 22 22.75 20.3333 21.6667 20.3333H16.6667C16.1667 20.3333 15.8333 20.6667 15.8333 21.1667V22C15.8333 25.6667 18.8333 28.6667 22.5 28.6667C26.1667 28.6667 29.1667 25.6667 29.1667 22V18.6667H34.1667V21.1667ZM35.8333 13V10.9167L37.5833 11.9167L35.8333 13Z" fill="#FDFFF7"/>
</g>
<defs>
<clipPath id="clip0">
<rect width="40" height="40" fill="white"/>
</clipPath>
</defs>
</svg>